0
191 394076 1734623111711909527 7e2860f081407d3d9f477662f7b2cd11 0 src/root.zig
7616 1846989 1717700911000000000 a112ef71b351e8f79f6f43c583ede25c 1 std/std.zig
23040 1846787 1717700911000000000 da66963546b611ee7750a27396b7d1ea 1 std/start.zig
115223 1846994 1717700911000000000 864599658ca312005d8d3860dcc5d44e 1 std/debug.zig
2838 0 0 05bfa54e93ac2490d99bfd367fe613c6 0 /home/x/.cache/zig/b/05bfa54e93ac2490d99bfd367fe613c6/builtin.zig
33165 1846794 1717700911000000000 f94156764e93e22ac481419ae3dcd7e2 1 std/builtin.zig
87972 1847195 1717700911000000000 2058e9176f2f8c413153da85bdefea9a 1 std/Target.zig
129328 1846910 1717700911000000000 aa1c9ead6b093aa4fc744cbaf6cdb147 1 std/Target/x86.zig
73503 1847197 1717700911000000000 4f495cdd87469544c122e37211fe3d16 1 std/math.zig
41362 1846932 1717700911000000000 222d7cb14bd7ca087b75cbc16cba6dda 1 std/meta.zig
11091 1846991 1717700911000000000 3b4e837c9f6b3b4fbb5b3b95148e553c 1 std/SemanticVersion.zig
12325 1847202 1717700911000000000 2229bf6824a9119504139fcdb850890e 1 std/os.zig
13386 1846847 1717700911000000000 b23fdad07ce3b3bc638202a13d269a17 1 std/os/wasi.zig
8321 1847203 1717700911000000000 445ca968f1971dbcfae846f76f46cc2d 1 std/log.zig
12352 1846793 1717700911000000000 85ba4034d104ed83a45a1bb6ea2f588a 1 std/crypto.zig
35816 1846990 1717700911000000000 9ad542fb9d5f647b2fd9aa956a4876f1 1 std/fs.zig
106358 1846775 1717700911000000000 9b602efb3cf67bc725c9853d5fe33864 1 std/fmt.zig
6224 1847125 1717700911000000000 1478fc3a3f5e7178b0ebc595cf60927a 1 std/crypto/tlcsprng.zig
19056 1847196 1717700911000000000 fbe5a337296572a6d62cbde681c465ea 1 std/atomic.zig
54097 1846937 1717700911000000000 5fc2474d41197418fc547d7d64491a85 1 std/Thread.zig
10030 1847133 1717700911000000000 6ec4900de2fa66c512d3a1a8b197182b 1 std/Thread/Mutex.zig
25700 1847128 1717700911000000000 2c3e57ebee88e5b426bac4e5144d55a2 1 std/io.zig
65843 1846783 1717700911000000000 2f1e7806f11f80320d184c737b99b781 1 std/fs/File.zig
293019 1846985 1717700911000000000 3aef046ab18b515bbbbf65ba8531ef93 1 std/posix.zig
207296 1846879 1717700911000000000 651fd04e37ca32286baf84da551c7ce0 1 std/os/linux.zig
2697 1847022 1717700911000000000 8464fd0bdf5c1f8ba10a286a4fe46f4d 1 std/io/Writer.zig
176912 1847329 1717700911000000000 223e2fd0f89a74fd7d5132dbe48f1c2c 1 std/mem.zig
13626 1846970 1717700911000000000 98c52b2fa05c32ad77f1743a5f3383ee 1 std/mem/Allocator.zig
89980 1846986 1717700911000000000 52e58e0e5a1dd700c7ba1de70432e45c 1 std/hash_map.zig
5461 1847030 1717700911000000000 ed6aac6dd443d6bdac1cf31688d1b444 1 std/io/tty.zig
112489 1847198 1717700911000000000 d33cf67bbc2809a1c38591e04f1e3f51 1 std/dwarf.zig
55939 1846968 1717700911000000000 9fbbf465379ce46a9365e411debc3ce1 1 std/enums.zig
87217 1846967 1717700911000000000 d82200bd8e9f05406e233eef46e48149 1 std/array_list.zig
114248 1846773 1717700911000000000 7aa5a3d5d7c75f7861328581549e6a5d 1 std/array_hash_map.zig
38005 1847129 1717700911000000000 2df15a06c9368a128b68d617837153ef 1 std/multi_array_list.zig
61526 1847045 1717700911000000000 00003d31510dec096134200d0d6ceecc 1 std/elf.zig
112808 1846779 1717700911000000000 736eee48bb9f3802d7054c19abc437df 1 std/fs/Dir.zig
1730 1847201 1717700911000000000 36cb1b0b5e0bb7d10f9b200b0a751743 1 std/hash.zig
19972 1846925 1717700911000000000 c36dede4b91e35db37ea45c66dbe6fe9 1 std/hash/crc.zig
3882 1846924 1717700911000000000 168f6844905becfc3ec252416dbee69f 1 std/hash/crc/impl.zig
6449 1847028 1717700911000000000 3bcfe7862cea857ee79939a098991ad5 1 std/io/fixed_buffer_stream.zig
14434 1847035 1717700911000000000 2655b33c088dd930683d9eb843eaceb4 1 std/io/Reader.zig
2057 1847191 1717700911000000000 a778ec13ef93e0ace847f52f066441fd 1 std/compress.zig
3736 1847189 1717700911000000000 a5c9eee5eaf5943e22c8a03fac3f2841 1 std/compress/zlib.zig
23844 1847172 1717700911000000000 61343f5304677e260ccaed8ba225c2b1 1 std/compress/flate/inflate.zig
7460 1847165 1717700911000000000 1c1d1c1c4e61c64090b7ace80a4c2dab 1 std/compress/flate/container.zig
16625 1847166 1717700911000000000 8ba4aa19f03596c0d0eb18045a7331e8 1 std/compress/flate/bit_reader.zig
7434 1847170 1717700911000000000 a6347ffd91bdf7b166947d627e9f38c5 1 std/compress/flate/CircularBuffer.zig
3519 1846920 1717700911000000000 4e3c7d701979e5945ab9f85fed59a579 1 std/hash/adler.zig
10966 1847163 1717700911000000000 e24401bc06abbf873844211e243f0871 1 std/compress/flate/huffman_decoder.zig
77139 1846782 1717700911000000000 6ed68741d6922f90c45c6c388b6cdd8c 1 std/fs/path.zig
1399 1846890 1717700911000000000 40a7d4ac60d12c6e9ca294acaed35474 1 std/dwarf/FORM.zig
3900 1846893 1717700911000000000 b5711d1b73e43c5aaea25647f88f9369 1 std/dwarf/TAG.zig
7395 1846886 1717700911000000000 0736a520f4793791a2cfc257bfcfd3b6 1 std/dwarf/AT.zig
643 1846888 1717700911000000000 6f6a9e4e1602df062ad02179710971c4 1 std/dwarf/EH.zig
1884 1847274 1717700911000000000 4e39bcecc218a8cefd7304859e028778 1 std/math/log2.zig
200963 1846878 1717700911000000000 6382cd937e84a8fc6ae02341db586df9 1 std/os/windows.zig
12563 1846863 1717700911000000000 edca846565ef855c728e7372feed8676 1 std/os/linux/x86_64.zig
19546 1846891 1717700911000000000 eeb537ce254d8635c5876f3cb23ba2ab 1 std/dwarf/abi.zig
26403 1846884 1717700911000000000 17cfec6893f0195cf3f2128e131aebbd 1 std/dwarf/call_frame.zig
71838 1846889 1717700911000000000 472566d679006f02ce08a8e6d3ca5840 1 std/dwarf/expressions.zig
43084 1847136 1717700911000000000 a67e9f409c649ae15d47dcc9582247f0 1 std/Thread/Futex.zig
82077 1846788 1717700911000000000 d5fc31f78c3ec8b424ea391b2e65f728 1 std/unicode.zig
23129 1847044 1717700911000000000 b579436bcc763fc86642b2a1d69be89a 1 std/simd.zig
94423 1846875 1717700911000000000 936f06081ca66c21f2225e91832d8a41 1 std/os/linux/syscalls.zig
31762 1846795 1717700911000000000 39822c5f2ad237650217b35e72989b75 1 std/heap.zig
12747 1847250 1717700911000000000 0c84990d94912da71f88ccdd844ff032 1 std/heap/arena_allocator.zig
14239 1846784 1717700911000000000 a69e9fd3810cdd1601c26dd47210af71 1 std/linked_list.zig
3917 1847248 1717700911000000000 985cae2df1113f68d7f2eca79afe1887 1 std/heap/PageAllocator.zig
74835 1847366 1717700911000000000 26bff32158c4e55ea1dbd7cbd193b2d5 1 std/process.zig
29780 1847256 1717700911000000000 f63bcad555043dc37b62da5b7656cb6e 1 std/sort.zig
51714 1846792 1717700911000000000 eb8790d984ce4a6ddd6376d877c85ff1 1 std/sort/block.zig
17036 1847192 1717700911000000000 e5e4bda8771008b986953e018b241bdd 1 std/dynamic_library.zig
17851 1847009 1717700911000000000 62510503fe6b45659189d32c19c9dc45 1 std/leb128.zig
10710 1846791 1717700911000000000 f2973ab2be6115a15cf6c75a2be36ad3 1 std/sort/pdq.zig
10091 1846785 1717700911000000000 616a2d791eb8d67329f8198701e2bbad 1 std/valgrind.zig
13689 1846936 1717700911000000000 131aba425aefaef0d374793c2dd9e731 1 std/time.zig
1618 1847167 1717700911000000000 60e22c8a23680b34b51d27b486811807 1 std/compress/flate/consts.zig
13375 1847177 1717700911000000000 239244362ca7a3d92e32a4518ccda927 1 std/compress/flate/Token.zig
50900 1847228 1717700911000000000 00b173ccd55aed075eef5aa1dccad55a 1 std/Progress.zig
8372 1846928 1717700911000000000 d48498b32f349820311bbf338ae1aae5 1 std/hash/wyhash.zig
5693 1846887 1717700911000000000 01d731f8d28ba8382ff3c5885d5e0c75 1 std/dwarf/OP.zig
9239 1847139 1717700911000000000 d703f6a7af8c150d259a587850decd1f 1 std/Thread/ResetEvent.zig
